<svg width="28" height="28" viewBox="0 0 28 28" fill="none" xmlns="http://www.w3.org/2000/svg">
<g clip-path="url(#clip0_172_2890)">
<path d="M19.8333 5.83337H8.16667C5.58934 5.83337 3.5 7.92271 3.5 10.5V17.5C3.5 20.0774 5.58934 22.1667 8.16667 22.1667H19.8333C22.4107 22.1667 24.5 20.0774 24.5 17.5V10.5C24.5 7.92271 22.4107 5.83337 19.8333 5.83337Z" stroke="#565B7B" stroke-width="2" stroke-linecap="round" stroke-linejoin="round"/>
<path d="M11.666 10.5L17.4993 14L11.666 17.5V10.5Z" stroke="#565B7B" stroke-width="2" stroke-linecap="round" stroke-linejoin="round"/>
</g>
<defs>
<clipPath id="clip0_172_2890">
<rect width="28" height="28" fill="white"/>
</clipPath>
</defs>
</svg>
